{
  "tracks": {
    "href": "https://api.spotify.com/v1/search?query=just+hold+on&type=track&offset=0&limit=2",
    "items": [
      {
        "album": {
          "album_type": "single",
          "artists": [
            {
              "external_urls": {
                "spotify": "https://open.spotify.com/artist/77AiFEVeAVj2ORpC85QVJs"
              },
              "href": "https://api.spotify.com/v1/artists/77AiFEVeAVj2ORpC85QVJs",
              "id": "77AiFEVeAVj2ORpC85QVJs",
              "name": "Steve Aoki",
              "type": "artist",
              "uri": "spotify:artist:77AiFEVeAVj2ORpC85QVJs"
            },
            {
              "external_urls": {
                "spotify": "https://open.spotify.com/artist/57WHJIHrjOE3iAxpihhMnp"
              },
              "href": "https://api.spotify.com/v1/artists/57WHJIHrjOE3iAxpihhMnp",
              "id": "57WHJIHrjOE3iAxpihhMnp",
              "name": "Louis Tomlinson",
              "type": "artist",
              "uri": "spotify:artist:57WHJIHrjOE3iAxpihhMnp"
            }
          ],
          "available_markets": [
            "AD",
            "AR",
            "AT",
            "BE",
            "BG",
            "BO",
            "BR",
            "CA",
            "CH",
            "CL",
            "CO",
            "CR",
            "CY",
            "CZ",
            "DE",
            "DK",
            "DO",
            "EC",
            "EE",
            "ES",
            "FI",
            "FR",
            "GR",
            "GT",
            "HK",
            "HN",
            "HU",
            "ID",
            "IL",
            "IS",
            "IT",
            "JP",
            "LI",
            "LT",
            "LU",
            "LV",
            "MC",
            "MT",
            "MX",
            "MY",
            "NI",
            "NL",
            "NO",
            "PA",
            "PE",
            "PH",
            "PL",
            "PT",
            "PY",
            "RO",
            "SE",
            "SG",
            "SK",
            "SV",
            "TH",
            "TR",
            "TW",
            "US",
            "UY",
            "VN",
            "ZA"
          ],
          "external_urls": {
            "spotify": "https://open.spotify.com/album/6NomK9f7zRLOuScvAyI1XX"
          },
          "href": "https://api.spotify.com/v1/albums/6NomK9f7zRLOuScvAyI1XX",
          "id": "6NomK9f7zRLOuScvAyI1XX",
          "images": [
            {
              "height": 640,
              "url": "https://i.scdn.co/image/a1e8b2c58fa4c031c552e6caf8570a4e85266c56",
              "width": 640
            },
            {
              "height": 300,
              "url": "https://i.scdn.co/image/3f31e79c320ece8b2d3763b717cf256d1f77bc17",
              "width": 300
            },
            {
              "height": 64,
              "url": "https://i.scdn.co/image/352d737d02a842c390074ca75f792c1cc0d99cca",
              "width": 64
            }
          ],
          "name": "Just Hold On",
          "release_date": "2016-12-12",
          "release_date_precision": "day",
          "total_tracks": 1,
          "type": "album",
          "uri": "spotify:album:6NomK9f7zRLOuScvAyI1XX"
        },
        "artists": [
          {
            "external_urls": {
              "spotify": "https://open.spotify.com/artist/77AiFEVeAVj2ORpC85QVJs"
            },
            "href": "https://api.spotify.com/v1/artists/77AiFEVeAVj2ORpC85QVJs",
            "id": "77AiFEVeAVj2ORpC85QVJs",
            "name": "Steve Aoki",
            "type": "artist",
            "uri": "spotify:artist:77AiFEVeAVj2ORpC85QVJs"
          },
          {
            "external_urls": {
              "spotify": "https://open.spotify.com/artist/57WHJIHrjOE3iAxpihhMnp"
            },
            "href": "https://api.spotify.com/v1/artists/57WHJIHrjOE3iAxpihhMnp",
            "id": "57WHJIHrjOE3iAxpihhMnp",
            "name": "Louis Tomlinson",
            "type": "artist",
            "uri": "spotify:artist:57WHJIHrjOE3iAxpihhMnp"
          }
        ],
        "available_markets": [
          "AD",
          "AR",
          "AT",
          "BE",
          "BG",
          "BO",
          "BR",
          "CA",
          "CH",
          "CL",
          "CO",
          "CR",
          "CY",
          "CZ",
          "DE",
          "DK",
          "DO",
          "EC",
          "EE",
          "ES",
          "FI",
          "FR",
          "GR",
          "GT",
          "HK",
          "HN",
          "HU",
          "ID",
          "IL",
          "IS",
          "IT",
          "JP",
          "LI",
          "LT",
          "LU",
          "LV",
          "MC",
          "MT",
          "MX",
          "MY",
          "NI",
          "NL",
          "NO",
          "PA",
          "PE",
          "PH",
          "PL",
          "PT",
          "PY",
          "RO",
          "SE",
          "SG",
          "SK",
          "SV",
          "TH",
          "TR",
          "TW",
          "US",
          "UY",
          "VN",
          "ZA"
        ],
        "disc_number": 1,
        "duration_ms": 198774,
        "explicit": false,
        "external_ids": {
          "isrc": "USUS11600503"
        },
        "external_urls": {
          "spotify": "https://open.spotify.com/track/3EmmCZoqpWOTY1g2GBwJoR"
        },
        "href": "https://api.spotify.com/v1/tracks/3EmmCZoqpWOTY1g2GBwJoR",
        "id": "3EmmCZoqpWOTY1g2GBwJoR",
        "is_local": false,
        "name": "Just Hold On",
        "popularity": 75,
        "preview_url": "https://p.scdn.co/mp3-preview/8d728867e6951fadd40709dfc34b9050c8e7cef5?cid=97f443845ccf4cc09f69c5603fe41352",
        "track_number": 1,
        "type": "track",
        "uri": "spotify:track:3EmmCZoqpWOTY1g2GBwJoR"
      },
      {
        "album": {
          "album_type": "single",
          "artists": [
            {
              "external_urls": {
                "spotify": "https://open.spotify.com/artist/05p69v44eqHGhc9ehcpoFC"
              },
              "href": "https://api.spotify.com/v1/artists/05p69v44eqHGhc9ehcpoFC",
              "id": "05p69v44eqHGhc9ehcpoFC",
              "name": "Dean Stance",
              "type": "artist",
              "uri": "spotify:artist:05p69v44eqHGhc9ehcpoFC"
            }
          ],
          "available_markets": [
            "AD",
            "AR",
            "AT",
            "AU",
            "BE",
            "BG",
            "BO",
            "BR",
            "CA",
            "CH",
            "CL",
            "CO",
            "CR",
            "CY",
            "CZ",
            "DE",
            "DK",
            "DO",
            "EC",
            "EE",
            "ES",
            "FI",
            "FR",
            "GB",
            "GR",
            "GT",
            "HK",
            "HN",
            "HU",
            "ID",
            "IE",
            "IL",
            "IS",
            "IT",
            "JP",
            "LI",
            "LT",
            "LU",
            "LV",
            "MC",
            "MT",
            "MX",
            "MY",
            "NI",
            "NL",
            "NO",
            "NZ",
            "PA",
            "PE",
            "PH",
            "PL",
            "PT",
            "PY",
            "RO",
            "SE",
            "SG",
            "SK",
            "SV",
            "TH",
            "TR",
            "TW",
            "US",
            "UY",
            "VN",
            "ZA"
          ],
          "external_urls": {
            "spotify": "https://open.spotify.com/album/0dXmMe7Ss7J55tm2kE84n6"
          },
          "href": "https://api.spotify.com/v1/albums/0dXmMe7Ss7J55tm2kE84n6",
          "id": "0dXmMe7Ss7J55tm2kE84n6",
          "images": [
            {
              "height": 640,
              "url": "https://i.scdn.co/image/59bdcb28e0750121d54bb381d7a86cd0493f3d7a",
              "width": 640
            },
            {
              "height": 300,
              "url": "https://i.scdn.co/image/e1c6f0ace9dc0931bdfdfd93fc9f0c2fb8ffac0e",
              "width": 300
            },
            {
              "height": 64,
              "url": "https://i.scdn.co/image/baacd7622a1c4b8b891415cd505467916445d1d6",
              "width": 64
            }
          ],
          "name": "Just Hold On",
          "release_date": "2017-08-29",
          "release_date_precision": "day",
          "total_tracks": 1,
          "type": "album",
          "uri": "spotify:album:0dXmMe7Ss7J55tm2kE84n6"
        },
        "artists": [
          {
            "external_urls": {
              "spotify": "https://open.spotify.com/artist/05p69v44eqHGhc9ehcpoFC"
            },
            "href": "https://api.spotify.com/v1/artists/05p69v44eqHGhc9ehcpoFC",
            "id": "05p69v44eqHGhc9ehcpoFC",
            "name": "Dean Stance",
            "type": "artist",
            "uri": "spotify:artist:05p69v44eqHGhc9ehcpoFC"
          }
        ],
        "available_markets": [
          "AD",
          "AR",
          "AT",
          "AU",
          "BE",
          "BG",
          "BO",
          "BR",
          "CA",
          "CH",
          "CL",
          "CO",
          "CR",
          "CY",
          "CZ",
          "DE",
          "DK",
          "DO",
          "EC",
          "EE",
          "ES",
          "FI",
          "FR",
          "GB",
          "GR",
          "GT",
          "HK",
          "HN",
          "HU",
          "ID",
          "IE",
          "IL",
          "IS",
          "IT",
          "JP",
          "LI",
          "LT",
          "LU",
          "LV",
          "MC",
          "MT",
          "MX",
          "MY",
          "NI",
          "NL",
          "NO",
          "NZ",
          "PA",
          "PE",
          "PH",
          "PL",
          "PT",
          "PY",
          "RO",
          "SE",
          "SG",
          "SK",
          "SV",
          "TH",
          "TR",
          "TW",
          "US",
          "UY",
          "VN",
          "ZA"
        ],
        "disc_number": 1,
        "duration_ms": 223712,
        "explicit": false,
        "external_ids": {
          "isrc": "SEXGF1709402"
        },
        "external_urls": {
          "spotify": "https://open.spotify.com/track/7pohC6860dSeErh6ngNdPh"
        },
        "href": "https://api.spotify.com/v1/tracks/7pohC6860dSeErh6ngNdPh",
        "id": "7pohC6860dSeErh6ngNdPh",
        "is_local": false,
        "name": "Just Hold On",
        "popularity": 56,
        "preview_url": "https://p.scdn.co/mp3-preview/abbe36005438ee397f0c8c88e51ad022802b2844?cid=97f443845ccf4cc09f69c5603fe41352",
        "track_number": 1,
        "type": "track",
        "uri": "spotify:track:7pohC6860dSeErh6ngNdPh"
      }
    ],
    "limit": 2,
    "next": "https://api.spotify.com/v1/search?query=just+hold+on&type=track&offset=2&limit=2",
    "offset": 0,
    "previous": null,
    "total": 624
  }
}